[
    {
        "key": "group_5d935e5024de4",
        "title": "Raporty",
        "fields": [
            {
                "key": "field_58b56f5a5f8e8",
                "label": "Ścieżka do pliku",
                "name": "sciezka_do_pliku",
                "type": "file",
                "instructions": "",
                "required": 0,
                "conditional_logic": 0,
                "wrapper": {
                    "width": "",
                    "class": "",
                    "id": ""
                },
                "library": "all",
                "return_format": "array",
                "min_size": 0,
                "max_size": 0,
                "mime_types": ""
            }
        ],
        "location": [
            [
                {
                    "param": "post_type",
                    "operator": "==",
                    "value": "post"
                }
            ]
        ],
        "menu_order": 0,
        "position": "normal",
        "style": "seamless",
        "label_placement": "top",
        "instruction_placement": "label",
        "hide_on_screen": [],
        "active": true,
        "description": ""
    }
]